{
    "/js/app.js": "/js/app.js?id=252156453261cdb66266",
    "/js/manifest.js": "/js/manifest.js?id=fcf76ba4a2d63c6d3d44",
    "/js/MainMenu.js": "/js/MainMenu.js?id=a23390a307708da13d0a",
    "/js/MembersMenu.js": "/js/MembersMenu.js?id=45482dfe37c9bcf47b74",
    "/js/MobileMenu.js": "/js/MobileMenu.js?id=dc2ca8caabc4aaeaf8ae",
    "/js/MembersMobileMenu.js": "/js/MembersMobileMenu.js?id=7c7e6bcab0fa5ec453d6",
    "/js/Footer.js": "/js/Footer.js?id=4b2cb4ccdd9cd15ad92e",
    "/js/MailingList.js": "/js/MailingList.js?id=db25f447ef32a621f12d",
    "/js/Loader.js": "/js/Loader.js?id=b4b688a19274cd0f1fb0",
    "/js/ContactPageForm.js": "/js/ContactPageForm.js?id=3582f804267a8a89fde7",
    "/js/ContactGuide.js": "/js/ContactGuide.js?id=4484f152cb536d1ead89",
    "/js/JoinForm.js": "/js/JoinForm.js?id=890ac93deef45a533140",
    "/js/NewsIndex.js": "/js/NewsIndex.js?id=af19695288132562a040",
    "/js/NewsShow.js": "/js/NewsShow.js?id=15bec962e66d0e45584d",
    "/js/GuidesIndex.js": "/js/GuidesIndex.js?id=ff2b351ad1bda8367937",
    "/js/GuideImagesCarousel.js": "/js/GuideImagesCarousel.js?id=7bb3fa85d0f0da23bafd",
    "/js/SeenEnough.js": "/js/SeenEnough.js?id=1105ac15b2620f0e8990",
    "/js/ScrollIndicator.js": "/js/ScrollIndicator.js?id=7ce9a4309c32686305c5",
    "/js/NewsSelect.js": "/js/NewsSelect.js?id=1d90c0626e9759884a73",
    "/js/GuidesFilter.js": "/js/GuidesFilter.js?id=ee08cd40948e21a2bf26",
    "/js/GuidesShow.js": "/js/GuidesShow.js?id=cf3587e8d89d17e447d3",
    "/js/GuideCard.js": "/js/GuideCard.js?id=8fb422e2fc22b5e0f6e6",
    "/css/app.css": "/css/app.css?id=01baad6ad4c9491ea14b",
    "/js/vendor.js": "/js/vendor.js?id=4726676838c5a9fbc8ec",
    "/css/app.min.css": "/css/app.min.css?id=01baad6ad4c9491ea14b"
}
