<svg xmlns="http://www.w3.org/2000/svg" width="10.481" height="6.807" viewBox="0 0 10.481 6.807">
  <path id="Path_554" data-name="Path 554" d="M11164.887,1612.012l5,4.184-5,4.184" transform="translate(1621.436 -11163.83) rotate(90)" fill="none" stroke="#002145" stroke-linecap="round" stroke-linejoin="round" stroke-width="1.5"/>
</svg>
